<svg width="5" height="5" viewBox="0 0 5 5" fill="none" xmlns="http://www.w3.org/2000/svg">
<path opacity="0.64" fill-rule="evenodd" clip-rule="evenodd" d="M2.5 5C2.15482 5 1.875 4.72018 1.875 4.375C1.8739 3.6851 1.3149 3.1261 0.625 3.125C0.279822 3.125 0 2.84518 0 2.5C0 2.15482 0.279822 1.875 0.625 1.875C1.3149 1.8739 1.8739 1.3149 1.875 0.625C1.875 0.279822 2.15482 0 2.5 0C2.84518 0 3.125 0.279822 3.125 0.625C3.1261 1.3149 3.6851 1.8739 4.375 1.875C4.72018 1.875 5 2.15482 5 2.5C5 2.84518 4.72018 3.125 4.375 3.125C3.6851 3.1261 3.1261 3.6851 3.125 4.375C3.125 4.54076 3.05915 4.69973 2.94194 4.81694C2.82473 4.93415 2.66576 5 2.5 5Z" fill="#9CA9B3"/>
</svg>
